<?xml version="1.0" encoding="utf-8"?>
<!-- Generator: Adobe Illustrator 22.1.0, SVG Export Plug-In . SVG Version: 6.00 Build 0)  -->
<svg version="1.1" id="圖層_1" xmlns="http://www.w3.org/2000/svg" xmlns:xlink="http://www.w3.org/1999/xlink" x="0px" y="0px"
	 viewBox="0 0 121 113" style="enable-background:new 0 0 121 113;" xml:space="preserve">
<style type="text/css">
	.st0{fill:#4D4D4D;}
</style>
<g id="レイヤー_2_9_">
	<g id="レイヤー_1-2_9_">
		<path class="st0" d="M102.7,67.1L62.5,80.5c1.3,1.4,2.3,3.1,3,4.9l38.9-13c1.5-0.5,2.2-2.1,1.8-3.6
			C105.6,67.4,104.1,66.7,102.7,67.1z M53.5,75.8L39,30.5c-2-6.6-7.6-11.5-14.3-12.7l-11.3-2c-1.5-0.3-2.9,0.7-3.2,2.1
			c0,0,0,0.1,0,0.1c-0.3,1.5,0.7,3,2.3,3.3c0,0,0,0,0,0l0,0l11.3,2c4.7,0.9,8.6,4.3,10,8.9l14.1,43.9C49.7,75.7,51.6,75.6,53.5,75.8
			z M48.1,80c-6.1,2.1-9.3,8.7-7.3,14.8c1.8,6,8.1,9.3,14.1,7.5c0.1,0,0.2,0,0.2-0.1c6-2.1,9.2-8.6,7.3-14.7
			c-1.8-6-8.1-9.4-14.1-7.6C48.2,80,48.2,80,48.1,80z M55.2,93c-0.5,1-1.3,1.7-2.3,2c-1,0.4-2.1,0.3-3.1-0.2c-0.9-0.5-1.7-1.3-2-2.3
			c-0.3-1-0.3-2.1,0.2-3.1c1-2,3.3-2.8,5.3-1.8c0,0,0,0,0,0c0.9,0.5,1.7,1.3,2,2.3C55.8,90.9,55.7,92,55.2,93z M107.5,60.4l-0.6-1.8
			L92.6,14L44.1,30.3L59,76.7L107.5,60.4z M90.2,18.9l12.6,39.3L61.4,72L48.8,32.7L90.2,18.9z"/>
	</g>
</g>
</svg>
