<?xml version="1.0" encoding="utf-8"?>
<!-- Generator: Adobe Illustrator 22.1.0, SVG Export Plug-In . SVG Version: 6.00 Build 0)  -->
<svg version="1.1" id="圖層_1" xmlns="http://www.w3.org/2000/svg" xmlns:xlink="http://www.w3.org/1999/xlink" x="0px" y="0px"
	 viewBox="0 0 121 113" style="enable-background:new 0 0 121 113;" xml:space="preserve">
<style type="text/css">
	.st0{fill:#4D4D4D;}
</style>
<g id="レイヤー_2_10_">
	<g id="レイヤー_1-2_10_">
		<path class="st0" d="M97.3,21.6H24.4c-7.3,0-13.2,5.9-13.2,13.2v43.3c0,7.3,5.9,13.2,13.2,13.2h72.9c7.3,0,13.2-5.9,13.2-13.2
			V34.7C110.5,27.5,104.6,21.6,97.3,21.6z M104.2,78.1c0,3.8-3.1,6.9-6.9,6.9H24.4c-3.8,0-6.9-3.1-6.9-6.9V50.2h86.8L104.2,78.1z
			 M104.2,40.9H17.4v-6.2c0-3.8,3.1-6.9,6.9-6.9h73c3.8,0,6.9,3.1,6.9,6.9V40.9z M43.7,62.8H31.4v12.4h12.4L43.7,62.8z M92.6,62.8
			h-31v4.6h31L92.6,62.8z M86.4,72.1H61.6v4.6h24.8L86.4,72.1z"/>
	</g>
</g>
</svg>
