<?xml version="1.0" encoding="utf-8"?>
<!-- Generator: Adobe Illustrator 22.1.0, SVG Export Plug-In . SVG Version: 6.00 Build 0)  -->
<svg version="1.1" id="圖層_1" xmlns="http://www.w3.org/2000/svg" xmlns:xlink="http://www.w3.org/1999/xlink" x="0px" y="0px"
	 viewBox="0 0 192 46" style="enable-background:new 0 0 192 46;" xml:space="preserve">
<style type="text/css">
	.st0{fill:none;stroke:#838F9B;stroke-miterlimit:10;}
	.st1{fill:#BDA280;}
	.st2{font-family:'ARJULIAN';}
	.st3{font-size:40.0797px;}
	.st4{letter-spacing:12;}
	.st5{fill:#FFFFFF;}
</style>
<g>
	<g>
		<g>
			<g>
				<path class="st0" d="M36.6,45.3l-32.6-7C2.5,38,1.5,36.5,1.8,35l7-32.6c0.3-1.5,1.8-2.4,3.3-2.1l32.6,7c1.5,0.3,2.4,1.8,2.1,3.3
					l-7,32.6C39.5,44.7,38,45.7,36.6,45.3z"/>
			</g>
		</g>
		<text transform="matrix(1 0 0 1 28.0576 37.5353)" class="st1 st2 st3 st4">.</text>
	</g>
	<g>
		<path class="st5" d="M68.9,36.6c-0.4,0.3-1,0.7-1.6,1.1c-0.6,0.4-1.4,0.9-2.3,1.4c-0.8,0.4-1.5,0.8-2.1,1.1
			c-0.6,0.3-1.1,0.6-1.5,0.7c-0.6,0.3-1.2,0.5-1.9,0.6c-0.7,0.1-1.3,0.2-2,0.2c-0.2,0-0.5,0-0.7-0.1c-0.3-0.1-0.6-0.1-0.9-0.2
			c-0.4-0.1-0.7-0.2-1-0.3C54.7,41,54.5,41,54.3,41l-0.3-0.3l-0.6-0.1c-0.3,0-0.6-0.1-1-0.4c-0.4-0.3-0.8-0.6-1.2-1.1
			c-0.4-0.4-0.8-0.8-1-1.2c-0.3-0.4-0.5-0.7-0.6-1L49,35.1c-0.2-0.6-0.4-1.1-0.5-1.5c-0.1-0.4-0.1-0.6-0.1-0.7l0.2-1
			c-0.1-0.3-0.2-0.6-0.3-0.8c-0.1-0.2-0.1-0.4-0.1-0.5c0-0.1,0-0.5,0.1-1c0.1-0.6,0.2-1.4,0.3-2.4c0.1-0.2,0.2-0.4,0.3-0.7
			c0.1-0.3,0.2-0.6,0.3-1l-0.1-0.5c0-0.1,0-0.2,0.1-0.4c0.1-0.1,0.1-0.3,0.2-0.5c0.3-0.7,0.7-1.4,1-2.1c0.3-0.7,0.7-1.4,1-2
			c0.3-0.5,0.7-1,1.1-1.6c0.5-0.5,1-1.1,1.6-1.7c0.1-0.1,0.3-0.3,0.5-0.5c0.2-0.2,0.4-0.5,0.7-0.7c0.2-0.1,0.5-0.4,0.9-0.6
			c0.4-0.3,0.8-0.7,1.3-1.1c0.1-0.1,0.3-0.1,0.5-0.2c0.2-0.1,0.4-0.2,0.7-0.4c0.1,0,0.2-0.1,0.3-0.2c0.1-0.1,0.2-0.2,0.4-0.3
			c0.2-0.1,0.7-0.4,1.7-0.6c1-0.3,1.6-0.4,1.9-0.4c0.7,0,1.2,0,1.7,0.1c0.5,0.1,0.8,0.2,1.1,0.4l0.7,0.1c0.6,0.1,1,0.6,1.3,1.3
			c0.3,0.7,0.4,1.8,0.4,3.2c0,0.6,0,1.2,0,1.6c0,0.4,0,0.7-0.1,0.8c-0.1,0.4-0.2,1-0.3,1.6c-0.1,0.6-0.2,1.4-0.4,2.2
			c0,0.2-0.1,0.6-0.3,1.1c-0.2,0.5-0.4,1.2-0.7,1.9c-0.3,0.8-0.6,1.5-0.8,1.9c-0.2,0.4-0.4,0.7-0.5,0.7c-0.6,0.1-1.2,0.3-1.9,0.5
			c-0.3,0-0.5,0-0.7-0.1c-0.1,0-0.2-0.1-0.2-0.2c0-0.1,0-0.3,0.1-0.5c0.1-0.2,0.1-0.4,0.1-0.4c0-0.5-0.1-1.1-0.1-1.6
			c0-0.2,0.1-0.6,0.2-1.2c0.1-0.6,0.3-1.3,0.5-2.2c0.2-1,0.5-1.8,0.6-2.3c0.2-0.6,0.3-0.9,0.5-1.1c0.4-0.4,0.7-0.7,0.9-1.1
			c0.2-0.3,0.3-0.7,0.3-0.9c0-0.4-0.1-0.7-0.3-1c-0.2-0.3-0.5-0.5-0.9-0.7c-0.4-0.1-0.8-0.2-1.1-0.2c-0.4-0.1-0.8-0.2-1.1-0.3
			c-0.3,0.1-0.6,0.2-0.8,0.3c-0.2,0.1-0.4,0.1-0.6,0.1c-1,0.2-1.9,0.6-2.8,1.3c-0.9,0.7-1.7,1.7-2.5,3c-0.7,1.1-1.2,2.2-1.6,3.3
			c-0.4,1.1-0.7,2.2-0.8,3.3c-0.1,0.3-0.1,0.8-0.2,1.3c-0.1,0.5-0.2,1.1-0.4,1.8c0.1,0.4,0.2,0.8,0.3,1.2l-0.2,1.9
			c0,0.1,0.1,0.2,0.2,0.4c0.1,0.2,0.3,0.5,0.6,1c0.2,0.2,0.3,0.5,0.4,0.8c0.1,0.3,0.2,0.7,0.3,1.1c0,0.1,0.1,0.2,0.2,0.3
			c0.1,0.1,0.2,0.2,0.3,0.3c0.2,0.2,0.4,0.3,0.6,0.5c0.6,0.6,1.3,1.1,2,1.5c0.7,0.3,1.4,0.5,2.2,0.5c0.1,0,0.3,0,0.8-0.1
			c0.5-0.1,1.1-0.2,1.9-0.3c0.1-0.1,0.3-0.2,0.6-0.3c0.2-0.1,0.5-0.2,0.9-0.3c0.3-0.3,0.6-0.5,0.9-0.6c0.3-0.1,0.6-0.2,0.8-0.2
			c0.1-0.1,0.2-0.2,0.3-0.4s0.2-0.3,0.4-0.5c0.4-0.2,0.8-0.4,1.2-0.7c0.4-0.3,0.7-0.6,1-1C68.6,35.8,68.9,36.5,68.9,36.6z"/>
		<path class="st5" d="M68,34.6c0.1-0.1,0.2-0.2,0.3-0.4c0.1-0.2,0.2-0.3,0.4-0.5l1.7-1.1c0.2-0.2,0.5-0.5,0.9-0.9
			c0.4-0.4,0.9-0.8,1.6-1.4c0.1-0.2,0.2-0.3,0.4-0.5c0.2-0.2,0.4-0.4,0.6-0.6c0.2-0.2,0.4-0.4,0.6-0.5c0.2-0.2,0.4-0.3,0.6-0.5
			c0.2-0.2,0.4-0.4,0.6-0.6c0.2-0.2,0.4-0.4,0.6-0.6c0.2-0.2,0.5-0.4,0.7-0.5c0.2-0.1,0.5-0.2,0.8-0.2c0.3,0,0.6,0,0.7,0.1
			c0.2,0.1,0.3,0.2,0.3,0.3c-0.1,0.3-0.3,0.6-0.5,1l0.1,0.2c0.6-0.2,1.1-0.4,1.5-0.5c0.4-0.1,0.6-0.2,0.7-0.2c1.1,0,1.8,0.3,2.4,0.9
			c0.5,0.6,0.8,1.6,0.8,2.8c0,0.2,0,0.5-0.1,0.8c-0.1,0.3-0.2,0.7-0.3,1.1c-0.1,0.4-0.3,0.8-0.5,1.1c-0.2,0.3-0.3,0.5-0.5,0.6
			c0.1,0.2,0.1,0.3,0.2,0.4c0.1,0.1,0.2,0.1,0.3,0.1c0.1,0,0.2,0,0.4-0.1c0.1-0.1,0.3-0.2,0.4-0.3c0.1,0.3,0.3,0.6,0.4,1
			c0.1,0.3,0.3,0.7,0.4,1c-0.3,0.2-0.5,0.4-0.8,0.7c-0.2,0.2-0.5,0.4-0.8,0.6c-0.3,0.3-0.6,0.5-0.9,0.6c-0.3,0.1-0.6,0.2-0.9,0.2
			c-0.3,0-0.6-0.1-0.8-0.2c-0.2-0.2-0.4-0.4-0.5-0.7c-0.4,0.5-0.8,0.9-1.3,1.3c-0.5,0.4-1.1,0.7-1.7,1c-0.4,0.2-0.7,0.3-1,0.4
			c-0.3,0.1-0.6,0.1-0.8,0.1c-0.1,0-0.2,0-0.4,0.1c-0.2,0.1-0.4,0.1-0.5,0.1c-0.8,0-1.6-0.3-2.2-1c-0.7-0.7-1-1.4-1-2.3
			c0-0.3,0.1-0.8,0.2-1.3c0.2-0.6,0.2-0.9,0.2-1s0-0.2-0.1-0.2c-0.1-0.1-0.2-0.1-0.3-0.1c-0.1,0-0.2,0.1-0.5,0.3
			c-0.3,0.2-0.7,0.5-1.2,0.9c0,0.1-0.1,0.1-0.2,0.3c-0.1,0.1-0.2,0.2-0.3,0.4c-0.1-0.3-0.2-0.7-0.4-1C68.3,35.3,68.2,34.9,68,34.6z
			 M78.4,30.8c-0.1,0-0.2,0.1-0.3,0.2c-0.1,0.1-0.3,0.3-0.4,0.5c-0.2,0.3-0.4,0.7-0.7,1.1c-0.2,0.2-0.3,0.3-0.5,0.4
			c-0.2,0.1-0.4,0.2-0.6,0.2c-0.1,0-0.3,0.2-0.5,0.4c-0.2,0.3-0.3,0.6-0.5,1.1c-0.2,0.4-0.3,0.8-0.3,1.1c-0.1,0.3-0.1,0.6-0.1,0.8
			c0,0.4,0.1,0.7,0.3,0.9c0.2,0.2,0.5,0.3,0.9,0.3c0.7,0,1.3-0.2,1.8-0.5c0.6-0.4,1.1-0.9,1.6-1.6c0.2-0.3,0.4-0.5,0.6-0.8
			c0.1-0.1,0.2-0.2,0.3-0.4c0.1-0.2,0.1-0.4,0.2-0.7l0.4-1.2c-0.1-0.4-0.3-0.8-0.4-1c-0.1-0.2-0.2-0.4-0.3-0.5
			c-0.1,0-0.2-0.1-0.5-0.1C79.2,30.9,78.9,30.8,78.4,30.8z"/>
		<path class="st5" d="M83.6,34.6c0.1-0.1,0.1-0.2,0.2-0.3c0.1-0.1,0.2-0.3,0.3-0.4c0.1-0.1,0.3-0.3,0.6-0.5
			c0.2-0.2,0.5-0.5,0.8-0.7c0.3-0.3,0.6-0.6,1-1c0.4-0.4,0.8-0.9,1.4-1.5c0.2-0.2,0.5-0.5,0.9-0.9c0.3-0.4,0.8-0.8,1.2-1.3
			c0.4-0.5,0.8-0.8,1.3-1c0.5-0.2,1-0.3,1.5-0.3c0.5,0,0.9,0.2,1.1,0.5c0.2,0.3,0.4,0.8,0.4,1.4c0,0.3-0.1,0.9-0.4,1.9
			c-0.2,0.9-0.6,2.1-1.1,3.6c-0.1,0.3-0.3,0.5-0.4,0.8c-0.1,0.2-0.1,0.3-0.2,0.5c0,0.1,0,0.2,0,0.3c0,0.1,0.1,0.2,0.2,0.3
			c0.1,0,0.1-0.1,0.2-0.2c0.1-0.1,0.1-0.2,0.2-0.3c0.1-0.2,0.3-0.4,0.5-0.7c0.2-0.2,0.5-0.5,0.9-0.8c0.1-0.2,0.3-0.5,0.5-0.7
			c0.2-0.2,0.4-0.4,0.7-0.6c0.1-0.1,0.1-0.1,0.2-0.3c0.1-0.1,0.2-0.3,0.3-0.4c0.2-0.2,0.4-0.4,0.7-0.6c0.3-0.2,0.6-0.4,0.9-0.6
			c0.4-0.2,0.7-0.4,1-0.5c0.3-0.1,0.6-0.2,0.8-0.2c0.4,0,0.8,0.1,1.2,0.3c0.3,0.2,0.6,0.5,0.9,1c0.3,0.9,0.6,1.7,0.8,2.4
			c0.2,0.4,0.3,0.8,0.5,1c0.2,0.2,0.4,0.3,0.7,0.3c0.2,0,0.4,0,0.5-0.1c0.2-0.1,0.3-0.2,0.4-0.3l0.9,1.9c-0.2,0.2-0.5,0.4-0.8,0.6
			c-0.3,0.2-0.5,0.4-0.8,0.6c-0.3,0.3-0.6,0.5-0.9,0.6c-0.3,0.1-0.6,0.2-0.9,0.2c-0.3,0-0.6-0.1-1-0.2c-0.3-0.1-0.6-0.4-0.8-0.6
			c-0.1-0.1-0.3-0.3-0.4-0.6c-0.2-0.3-0.4-0.7-0.6-1.1c-0.2-0.2-0.4-0.4-0.6-0.7s-0.5-0.7-0.8-1.1l-0.2-0.1
			c-0.3,0.1-0.5,0.2-0.8,0.4s-0.6,0.4-0.9,0.7c-0.6,0.6-1.1,0.9-1.4,1.1c-0.3,0.1-0.5,0.3-0.6,0.5c-0.2,0.3-0.5,0.8-1,1.3
			c-0.5,0.5-1.1,1.2-1.8,1.9c-0.2,0.2-0.4,0.4-0.6,0.5c-0.2,0.2-0.4,0.3-0.6,0.5c-0.2,0.2-0.4,0.3-0.6,0.3c-0.2,0.1-0.5,0.1-0.8,0.1
			c-0.6,0-0.9-0.2-0.9-0.6c-0.1-0.4-0.1-0.8-0.1-1.2c0.2-0.6,0.5-1.3,0.7-2.2s0.6-1.9,0.9-3.1c0-0.1,0-0.2,0.1-0.3
			c0.1-0.1,0.1-0.3,0.2-0.5c0.1-0.2,0.1-0.3,0.1-0.5c0-0.1,0-0.2,0-0.3s0-0.2-0.1-0.2c-0.1-0.1-0.2-0.1-0.3-0.1
			c-0.1,0-0.3,0.1-0.6,0.3s-0.5,0.4-0.9,0.8c-0.4,0.4-0.7,0.8-1,1c-0.2,0.2-0.4,0.4-0.5,0.4c-0.1,0.1-0.3,0.2-0.5,0.4
			c-0.2,0.2-0.4,0.4-0.7,0.6c0,0.1-0.1,0.1-0.1,0.3c-0.1,0.1-0.2,0.2-0.3,0.4c-0.1-0.2-0.2-0.5-0.3-0.8
			C84.1,35.5,83.9,35.1,83.6,34.6z"/>
		<path class="st5" d="M104.3,34.6l0.1-0.2c0.1-0.1,0.2-0.3,0.3-0.4c0.1-0.2,0.3-0.4,0.5-0.6c1-0.9,2-2,3-3.3c1-1.3,1.9-2.8,2.9-4.4
			c0.1-0.2,0.2-0.4,0.4-0.6c0.1-0.3,0.3-0.6,0.5-1c0-0.1,0-0.1-0.1-0.2c0,0-0.1-0.1-0.2-0.1c-0.1,0-0.2,0-0.4,0.1
			c-0.2,0-0.3,0.1-0.4,0.1h-2.7c-0.1,0-0.3,0-0.6,0c-0.3,0-0.5,0-0.6,0c-0.1-0.1-0.3-0.1-0.4-0.2c-0.1,0-0.2-0.1-0.4-0.2
			c-0.2-0.1-0.3-0.1-0.4-0.2c-0.1-0.1-0.1-0.2-0.1-0.3c0-0.9,0.1-1.6,0.3-2.1c0.2-0.5,0.5-0.7,0.9-0.7c0.4,0,0.8,0,1.1,0.1
			c0.4,0,0.7,0.1,0.9,0.1c0.2,0,0.4-0.1,0.6-0.1c0.4,0,0.7,0,1,0c0.3,0,0.5,0.1,0.6,0.1c0.2,0,0.4-0.1,0.6-0.1
			c0.2,0,0.4-0.1,0.6-0.1l0.7,0.2c0.5-0.1,1-0.7,1.6-2.1c0.6-1.3,1.2-2,1.8-2c0.3,0,0.6,0.1,0.8,0.3c0.2,0.2,0.3,0.5,0.3,0.9
			c0,0.3-0.1,0.7-0.3,1.3c-0.2,0.5-0.3,0.9-0.3,1.2c0,0.1,0.1,0.1,0.1,0.2c0,0.1,0.1,0.1,0.2,0.2c0.1,0.1,0.1,0.2,0.2,0.3
			c0,0.1,0.1,0.3,0.1,0.5c0,0.8,0,1.5-0.1,2c-0.1,0.5-0.2,0.7-0.4,0.7l-1.5,0.3c0,0.1-0.1,0.3-0.1,0.5c0,0.2-0.1,0.4-0.2,0.7
			c-0.2,0.7-0.5,1.6-0.8,2.7c-0.3,1.1-0.6,2.4-1,3.8c-0.2,1.2-0.4,2.1-0.5,2.9c-0.1,0.7-0.2,1.2-0.2,1.5c0,0.2,0,0.4,0.1,0.5
			c0.1,0.1,0.2,0.2,0.3,0.2c0.1,0,0.4-0.2,0.9-0.6c0.5-0.4,1.3-1,2.3-1.8l0.8,1.9c-0.1,0.2-0.3,0.3-0.6,0.5
			c-0.3,0.2-0.6,0.4-0.9,0.7c-0.1,0.2-0.3,0.3-0.5,0.5c-0.2,0.2-0.5,0.4-0.7,0.7c-0.3,0.3-0.5,0.6-0.8,0.8c-0.3,0.3-0.5,0.6-0.8,0.8
			c-0.3,0.4-0.7,0.6-1,0.8c-0.3,0.2-0.6,0.2-0.9,0.2c-0.6,0-1.1-0.2-1.4-0.5c-0.3-0.4-0.5-0.9-0.5-1.7c0-0.8,0-1.5,0.1-2.1
			c0.1-0.6,0.2-1.1,0.3-1.4c0.1-0.1,0.1-0.2,0.1-0.3c0-0.1,0-0.3,0.1-0.6c0-0.2,0.1-0.5,0.2-0.8c0.1-0.5,0.2-1.1,0.3-1.6
			c0.2-0.3,0.3-0.7,0.5-1.1c0-0.1-0.1-0.1-0.2-0.2l-0.2,0.1c-0.2,0.3-0.5,0.7-0.8,1.1c-0.3,0.4-0.8,0.8-1.2,1.2
			c-0.7,0.7-1.5,1.4-2.3,2.1c0,0.1-0.1,0.2-0.2,0.3c-0.1,0.1-0.2,0.3-0.4,0.5c-0.1-0.2-0.2-0.4-0.3-0.6c-0.1-0.3-0.2-0.6-0.3-0.9
			c0-0.1-0.1-0.2-0.1-0.2C104.4,34.7,104.4,34.7,104.3,34.6z"/>
		<path class="st5" d="M117,33.7l2-1.3c0.1-0.1,0.2-0.2,0.3-0.3c0.1-0.1,0.2-0.3,0.3-0.5c0.1-0.2,0.2-0.3,0.4-0.5
			c0.2-0.1,0.4-0.2,0.6-0.3c0.1-0.1,0.3-0.3,0.5-0.5c0.2-0.2,0.5-0.5,0.8-0.7c0.2-0.1,0.4-0.2,0.6-0.4c0.2-0.2,0.5-0.4,0.8-0.6
			c1.3-1.2,2.5-2.1,3.5-2.7c1-0.6,1.8-0.9,2.5-0.9c0.4,0,0.7,0.1,0.8,0.2c0.2,0.2,0.3,0.4,0.3,0.7c0,0.3-0.1,0.6-0.2,0.8
			c-0.1,0.2-0.3,0.4-0.5,0.6c-0.4,0.3-0.8,0.5-1.2,0.8c-0.2,0.3-0.5,0.6-0.8,0.9c-0.3,0.3-0.7,0.7-1.2,1c-0.1,0.2-0.3,0.3-0.4,0.5
			c-0.1,0.1-0.2,0.2-0.4,0.4c-0.2,0.2-0.5,0.4-0.8,0.6c-0.1,0.3-0.5,0.7-0.9,1.2c-0.5,0.5-1.1,1.1-1.9,1.8c-0.1,0.1-0.3,0.3-0.5,0.7
			c-0.3,0.4-0.6,0.8-1,1.4l0.2,0.2c0.3-0.1,0.6-0.3,1-0.5c0.3-0.2,0.7-0.6,1.1-1c0.5-0.4,0.9-0.8,1.2-1.1c0.3-0.3,0.5-0.5,0.7-0.5
			c0.1-0.1,0.2-0.1,0.3-0.2c0.1-0.1,0.2-0.1,0.3-0.2c0.7-0.8,1.3-1.3,1.9-1.7c0.6-0.4,1.1-0.6,1.6-0.6c0.3,0,0.5,0.1,0.7,0.3
			c0.2,0.2,0.3,0.6,0.3,1c0,0.7,0,1.4,0,2c0,0.5,0.1,0.9,0.4,1.2c0.3,0.4,0.6,0.5,1,0.5c0.1,0,0.3,0,0.4-0.1
			c0.1-0.1,0.2-0.2,0.4-0.3c0.1-0.1,0.2-0.2,0.3-0.4c0.1-0.1,0.2-0.2,0.3-0.3c0.1,0,0.1-0.1,0.2-0.1c0.1-0.1,0.2-0.2,0.3-0.3
			c0.2,0.4,0.4,0.8,0.5,1.1c0.1,0.3,0.2,0.6,0.3,0.8c-0.3,0.3-0.7,0.6-1,0.9c-0.3,0.3-0.7,0.6-1,0.9c-0.4,0.3-0.9,0.6-1.3,0.7
			c-0.4,0.2-0.8,0.2-1.2,0.2c-0.9,0-1.7-0.3-2.2-0.8c-0.5-0.5-0.8-1.3-0.9-2.4c0-0.1,0-0.3-0.1-0.4c0-0.1-0.1-0.3-0.2-0.4
			c-0.1,0.1-0.2,0.1-0.2,0.2c-0.1,0.1-0.2,0.2-0.3,0.3c-0.2,0.1-0.4,0.3-0.7,0.5c-0.3,0.2-0.6,0.5-1,0.8c-0.5,0.5-0.9,0.9-1.3,1.2
			c-0.3,0.3-0.6,0.6-0.7,0.7c-0.3,0.2-0.6,0.5-1,0.7c-0.4,0.2-0.8,0.5-1.3,0.7c-0.3,0.2-0.6,0.3-0.8,0.4c-0.2,0.1-0.4,0.1-0.5,0.1
			c-0.7,0-1.2-0.2-1.5-0.5c-0.3-0.3-0.5-0.8-0.5-1.5c0-0.4,0.1-0.7,0.2-1.1c0.2-0.3,0.4-0.7,0.7-1c0-0.2,0-0.3,0-0.4
			c0-0.1,0-0.1-0.1-0.2c0-0.1-0.1-0.2-0.1-0.3c-0.1-0.2-0.2-0.4-0.3-0.7c-0.1-0.2-0.2-0.5-0.4-0.8c0.1-0.1,0.1-0.2,0.2-0.3
			C116.7,34.1,116.8,33.9,117,33.7z"/>
		<path class="st5" d="M132.9,34.6l0.1-0.1l0.1-0.2c0.4-0.5,1.1-1.2,2.1-2c1-0.8,1.7-1.5,2-2c0.1-0.2,0.3-0.4,0.5-0.5
			c0.2-0.1,0.4-0.1,0.6-0.1c0.5,0,0.9,0.1,1.3,0.4c0.3,0.2,0.6,0.6,0.7,1.1c0.1,0.4,0.2,0.9,0.3,1.3c0.1,0.4,0.2,0.9,0.2,1.3
			c0.1,0.3,0.2,0.7,0.4,1.3c0.1,0.6,0.3,0.9,0.3,1c0.1,0.1,0.2,0.2,0.3,0.3s0.3,0.1,0.5,0.1c0.3,0,0.5,0,0.8-0.1
			c0.3-0.1,0.6-0.2,0.8-0.5c0.2-0.2,0.4-0.4,0.7-0.6c0.2-0.2,0.5-0.4,0.7-0.6l0.9,1.9c-0.2,0.2-0.5,0.5-0.9,0.8
			c-0.4,0.3-0.8,0.6-1.4,1c-0.6,0.4-1.1,0.7-1.5,0.9c-0.4,0.2-0.7,0.3-1,0.3c-1.3,0-2.2-0.1-2.6-0.4c-0.4-0.3-0.8-1.1-1.3-2.5
			c-0.1-0.1-0.1-0.2-0.3-0.4c-0.1-0.2-0.2-0.3-0.4-0.5c-0.2-0.3-0.3-0.6-0.5-0.7c-0.1-0.2-0.2-0.2-0.3-0.2c-0.2,0-0.5,0.2-0.9,0.5
			c-0.4,0.3-0.9,0.8-1.4,1.4c-0.1-0.2-0.2-0.4-0.3-0.7c-0.1-0.3-0.2-0.5-0.3-0.9c0-0.1-0.1-0.2-0.1-0.2
			C133,34.7,133,34.7,132.9,34.6z M142,18c0.4,0,0.6,0.1,0.8,0.2c0.2,0.1,0.2,0.3,0.2,0.6c-0.1,0.4-0.2,0.7-0.2,1
			c-0.1,0.5-0.3,0.9-0.4,1.2c-0.1,0.3-0.2,0.6-0.2,0.7c-0.1,0.3-0.3,0.6-0.5,0.8c-0.2,0.2-0.5,0.4-0.8,0.6c-0.3,0.2-0.6,0.4-0.8,0.5
			c-0.2,0.1-0.4,0.1-0.5,0.1c-0.2,0-0.5-0.1-0.7-0.1c-0.2,0-0.4,0-0.7,0c-0.2-0.1-0.3-0.3-0.4-0.6c-0.1-0.3-0.2-0.7-0.2-1.1
			c0-0.4,0.3-1,0.8-1.6c0.5-0.6,1-1,1.4-1c0.2-0.3,0.5-0.6,0.9-1c0.1-0.1,0.3-0.2,0.6-0.2C141.4,18,141.7,18,142,18z"/>
		<path class="st5" d="M145.3,34.6c0.1-0.1,0.1-0.2,0.2-0.3c0.1-0.1,0.2-0.3,0.3-0.4c0.1-0.1,0.3-0.3,0.6-0.5
			c0.2-0.2,0.5-0.5,0.8-0.7c0.3-0.3,0.6-0.6,1-1c0.4-0.4,0.8-0.9,1.4-1.5c0.2-0.2,0.5-0.5,0.9-0.9c0.3-0.4,0.8-0.8,1.2-1.3
			c0.4-0.5,0.8-0.8,1.3-1c0.5-0.2,1-0.3,1.5-0.3c0.5,0,0.9,0.2,1.1,0.5c0.2,0.3,0.4,0.8,0.4,1.4c0,0.3-0.1,0.9-0.4,1.9
			c-0.2,0.9-0.6,2.1-1.1,3.6c-0.1,0.3-0.3,0.5-0.4,0.8c-0.1,0.2-0.1,0.3-0.2,0.5c0,0.1,0,0.2,0,0.3c0,0.1,0.1,0.2,0.2,0.3
			c0.1,0,0.1-0.1,0.2-0.2c0.1-0.1,0.1-0.2,0.2-0.3c0.1-0.2,0.3-0.4,0.5-0.7c0.2-0.2,0.5-0.5,0.9-0.8c0.1-0.2,0.3-0.5,0.5-0.7
			c0.2-0.2,0.4-0.4,0.7-0.6c0.1-0.1,0.1-0.1,0.2-0.3c0.1-0.1,0.2-0.3,0.3-0.4c0.2-0.2,0.4-0.4,0.7-0.6c0.3-0.2,0.6-0.4,0.9-0.6
			c0.4-0.2,0.7-0.4,1-0.5c0.3-0.1,0.6-0.2,0.8-0.2c0.4,0,0.8,0.1,1.2,0.3c0.3,0.2,0.6,0.5,0.9,1c0.3,0.9,0.6,1.7,0.8,2.4
			c0.2,0.4,0.3,0.8,0.5,1c0.2,0.2,0.4,0.3,0.7,0.3c0.2,0,0.4,0,0.5-0.1c0.2-0.1,0.3-0.2,0.4-0.3l0.9,1.9c-0.2,0.2-0.5,0.4-0.8,0.6
			c-0.3,0.2-0.5,0.4-0.8,0.6c-0.3,0.3-0.6,0.5-0.9,0.6c-0.3,0.1-0.6,0.2-0.9,0.2c-0.3,0-0.6-0.1-1-0.2s-0.6-0.4-0.8-0.6
			c-0.1-0.1-0.3-0.3-0.4-0.6c-0.2-0.3-0.4-0.7-0.6-1.1c-0.2-0.2-0.4-0.4-0.6-0.7c-0.2-0.3-0.5-0.7-0.8-1.1l-0.2-0.1
			c-0.3,0.1-0.5,0.2-0.8,0.4c-0.3,0.2-0.6,0.4-0.9,0.7c-0.6,0.6-1.1,0.9-1.4,1.1c-0.3,0.1-0.5,0.3-0.6,0.5c-0.2,0.3-0.5,0.8-1,1.3
			c-0.5,0.5-1.1,1.2-1.8,1.9c-0.2,0.2-0.4,0.4-0.6,0.5c-0.2,0.2-0.4,0.3-0.6,0.5c-0.2,0.2-0.4,0.3-0.6,0.3c-0.2,0.1-0.5,0.1-0.8,0.1
			c-0.6,0-0.9-0.2-0.9-0.6c-0.1-0.4-0.1-0.8-0.1-1.2c0.2-0.6,0.5-1.3,0.7-2.2c0.3-0.9,0.6-1.9,0.9-3.1c0-0.1,0-0.2,0.1-0.3
			s0.1-0.3,0.2-0.5c0.1-0.2,0.1-0.3,0.1-0.5c0-0.1,0-0.2,0-0.3s0-0.2-0.1-0.2c-0.1-0.1-0.2-0.1-0.3-0.1c-0.1,0-0.3,0.1-0.6,0.3
			c-0.2,0.2-0.5,0.4-0.9,0.8c-0.4,0.4-0.7,0.8-1,1c-0.2,0.2-0.4,0.4-0.5,0.4c-0.1,0.1-0.3,0.2-0.5,0.4c-0.2,0.2-0.4,0.4-0.7,0.6
			c0,0.1-0.1,0.1-0.1,0.3c-0.1,0.1-0.2,0.2-0.3,0.4c-0.1-0.2-0.2-0.5-0.3-0.8C145.7,35.5,145.5,35.1,145.3,34.6z"/>
		<path class="st5" d="M166,34.6c0.2-0.3,0.4-0.6,0.7-0.9c0.3-0.3,0.6-0.6,1-0.9c0-0.3,0.1-0.6,0.1-0.8c0-0.3,0.1-0.6,0.1-0.8
			c0-0.2,0.1-0.4,0.2-0.7c0.1-0.3,0.2-0.6,0.3-0.9c0.1-0.3,0.3-0.7,0.5-1.2s0.5-1,0.9-1.6c0.3-0.3,0.6-0.7,1-1.1
			c0.3-0.4,0.7-0.8,1-1.2c0.2-0.1,0.3-0.2,0.5-0.4c0.2-0.1,0.4-0.2,0.6-0.4c0.2-0.1,0.4-0.1,0.6-0.1c0.2,0,0.5-0.1,0.7-0.1
			c0.4,0,0.7,0,0.9,0.1c0.2,0.1,0.4,0.2,0.6,0.4c0.1,0.1,0.2,0.3,0.3,0.5c0.1,0.2,0.2,0.5,0.3,0.8c0,0.3,0.1,0.6,0.2,0.9
			c0-0.1,0,0-0.1,0.1c-0.1,0.2-0.1,0.4-0.2,0.7l-0.2,0.7c-0.2,0.7-0.7,1.5-1.4,2.3c-0.7,0.9-1.7,1.9-2.9,3c-0.1,0.1-0.2,0.2-0.3,0.4
			c-0.1,0.1-0.1,0.3-0.1,0.5c0,0.3,0.1,0.6,0.2,0.8c0.1,0.2,0.3,0.4,0.5,0.5c0.1,0.1,0.3,0.2,0.6,0.3c0.3,0.1,0.6,0.2,0.9,0.2
			c0.6,0,1.1-0.1,1.5-0.3c0.5-0.1,0.9-0.3,1.2-0.5c0.1,0,0.2-0.1,0.3-0.2c0.2-0.1,0.3-0.2,0.5-0.3c0.2,0.4,0.4,0.8,0.5,1.1
			c0.1,0.3,0.3,0.6,0.3,0.8c-0.8,0.8-1.6,1.4-2.2,1.8c-0.7,0.4-1.3,0.6-1.8,0.6c-0.2,0.1-0.5,0.2-0.8,0.3c-0.3,0.1-0.6,0.1-1,0.1
			c-0.5,0-1-0.1-1.4-0.2c-0.4-0.2-0.8-0.4-1-0.7c-0.1-0.1-0.3-0.3-0.4-0.6c-0.1-0.3-0.3-0.6-0.5-1c-0.1-0.3-0.3-0.5-0.4-0.7
			c-0.1-0.1-0.2-0.2-0.4-0.2c-0.1,0-0.2,0.1-0.4,0.2c-0.1,0.1-0.3,0.3-0.5,0.5c-0.1-0.2-0.2-0.5-0.3-0.8
			C166.4,35.5,166.2,35.1,166,34.6z M172.9,27.8c-0.3,0-0.7,0.4-1.3,1.2c-0.5,0.8-0.8,1.4-0.8,1.8c0,0.1,0,0.1,0.1,0.2
			c0,0,0.1,0.1,0.2,0.1c0.2,0,0.3-0.1,0.4-0.2c0.1-0.2,0.2-0.3,0.3-0.5c0.2-0.1,0.3-0.3,0.5-0.5c0.2-0.2,0.3-0.3,0.4-0.5
			c0.2-0.2,0.3-0.4,0.4-0.6c0.1-0.2,0.1-0.4,0.1-0.6c0-0.1,0-0.2-0.1-0.3C173.1,27.8,173,27.8,172.9,27.8z"/>
		<path class="st5" d="M176.9,34.6c0.2-0.3,0.5-0.6,0.7-0.9c1.1-0.8,1.9-1.7,2.6-2.4c0.7-0.8,1.2-1.5,1.5-2.2l-0.2-1
			c0.2-0.4,0.7-0.8,1.4-1.2c0.7-0.5,1.3-0.7,1.8-0.7c0.5,0,0.9,0.1,1.2,0.4c0.3,0.3,0.7,0.6,1,0.9c0.2,0.1,0.3,0.2,0.3,0.2
			c0.6,0.4,1,1,1.3,1.8c0.3,0.7,0.4,1.7,0.4,2.7c0,0.6-0.2,1.4-0.7,2.4c-0.4,1-0.7,1.8-0.7,2.4c0,0.1,0,0.1,0.1,0.2
			c0.1,0,0.1,0.1,0.2,0.1c0.2,0,0.4-0.1,0.7-0.2c0.3-0.2,0.5-0.4,0.8-0.7c0.8-0.7,1.2-1.1,1.4-1.2c0.2-0.1,0.4-0.2,0.6-0.4
			c0.1,0.3,0.3,0.6,0.4,0.9c0.2,0.3,0.3,0.7,0.5,1c-0.1,0.1-0.3,0.2-0.4,0.4c-0.2,0.2-0.4,0.3-0.6,0.5c-0.5,0.4-1.1,0.8-1.9,1.3
			c-0.8,0.5-1.7,1.1-2.8,1.7c-0.3,0.2-0.6,0.3-1,0.4c-0.6,0-1.1-0.1-1.4-0.3c-0.3-0.2-0.5-0.5-0.5-0.9c0-0.2,0-0.3,0.1-0.5
			c0.1-0.2,0.2-0.4,0.3-0.7c0.1-0.2,0.2-0.4,0.3-0.6c0.1-0.2,0.2-0.4,0.3-0.6c0.3-0.9,0.6-1.7,0.7-2.5c0.2-0.8,0.2-1.4,0.2-2
			c0-0.7-0.1-1.3-0.4-1.7c-0.2-0.4-0.6-0.6-1.1-0.7c-0.3,0.2-0.7,0.4-1,0.7c-0.4,0.3-0.8,0.7-1.1,1.2c-0.4,0.5-0.8,0.9-1.1,1.2
			c-0.3,0.3-0.6,0.5-0.8,0.7c-0.1,0.2-0.3,0.5-0.6,0.7c-0.3,0.3-0.7,0.6-1.1,0.9c0,0.1-0.1,0.1-0.1,0.3c-0.1,0.1-0.2,0.2-0.3,0.4
			c-0.1-0.3-0.2-0.6-0.4-1C177.2,35.3,177,35,176.9,34.6z"/>
	</g>
</g>
</svg>
